Componentes/main.vcd
$date
	Thu Aug  8 17:38:08 2024
$end
$version
	Icarus Verilog
$end
$timescale
	1s
$end
$scope module main $end
$var wire 1 ! fio_zero $end
$var wire 1 " fio_regWrite $end
$var wire 32 # fio_readData2 [31:0] $end
$var wire 32 $ fio_readData1 [31:0] $end
$var wire 32 % fio_readData [31:0] $end
$var wire 32 & fio_mux3Saida [31:0] $end
$var wire 32 ' fio_mux2Saida [31:0] $end
$var wire 1 ( fio_memtoReg $end
$var wire 1 ) fio_memWrite $end
$var wire 1 * fio_memRead $end
$var wire 7 + fio_instruction6_0 [6:0] $end
$var wire 32 , fio_instruction31_0 [31:0] $end
$var wire 5 - fio_instruction24_20 [4:0] $end
$var wire 5 . fio_instruction19_15 [4:0] $end
$var wire 3 / fio_instruction14_12 [2:0] $end
$var wire 5 0 fio_instruction11_7 [4:0] $end
$var wire 32 1 fio_imm [31:0] $end
$var wire 32 2 fio_enderecoProxInst [31:0] $end
$var wire 32 3 fio_enderecoPcSaida [31:0] $end
$var wire 32 4 fio_enderecoPc [31:0] $end
$var wire 32 5 fio_enderecoDesvio [31:0] $end
$var wire 1 6 fio_branch $end
$var wire 1 7 fio_and $end
$var wire 1 8 fio_aluSrc $end
$var wire 32 9 fio_aluResult [31:0] $end
$var wire 2 : fio_aluOp [1:0] $end
$var wire 4 ; fio_aluCtrlSaida [3:0] $end
$var reg 1 < clock $end
$var reg 4 = cont [3:0] $end
$var reg 1 > reset $end
$scope module alu $end
$var wire 32 ? aluResult [31:0] $end
$var wire 1 < clock $end
$var wire 1 > reset $end
$var wire 1 ! zero $end
$var wire 32 @ readData2 [31:0] $end
$var wire 32 A readData1 [31:0] $end
$var wire 4 B aluControl [3:0] $end
$var reg 32 C aluResult_reg [31:0] $end
$var reg 4 D cont [3:0] $end
$var reg 1 E zero_reg $end
$upscope $end
$scope module alu_control $end
$var wire 1 < clock $end
$var wire 1 > reset $end
$var wire 4 F saidaAluControl [3:0] $end
$var wire 3 G funct3 [2:0] $end
$var wire 2 H aluOp [1:0] $end
$var reg 4 I alu_control_reg [3:0] $end
$var reg 4 J cont [3:0] $end
$var reg 3 K funct3_reg [2:0] $end
$upscope $end
$scope module and_module $end
$var wire 1 ! alu_0 $end
$var wire 1 < clock $end
$var wire 1 > reset $end
$var wire 1 7 saidaAnd $end
$var wire 1 6 branch $end
$var reg 1 L AND $end
$var reg 4 M cont [3:0] $end
$upscope $end
$scope module control $end
$var wire 2 N aluOp [1:0] $end
$var wire 1 8 aluSrc $end
$var wire 1 6 branch $end
$var wire 1 < clock $end
$var wire 1 * memRead $end
$var wire 1 ) memWrite $end
$var wire 1 ( memtoReg $end
$var wire 1 " regWrite $end
$var wire 1 > reset $end
$var wire 7 O opcode [6:0] $end
$var reg 2 P aluOp_reg [1:0] $end
$var reg 1 Q aluSrc_reg $end
$var reg 1 R branch_reg $end
$var reg 4 S cont [3:0] $end
$var reg 1 T memRead_reg $end
$var reg 1 U memWrite_reg $end
$var reg 1 V memtoReg_reg $end
$var reg 1 W regWrite_reg $end
$upscope $end
$scope module data_memory $end
$var wire 32 X address [31:0] $end
$var wire 1 < clock $end
$var wire 1 * memRead $end
$var wire 1 ) memWrite $end
$var wire 32 Y readData [31:0] $end
$var wire 1 > reset $end
$var wire 32 Z writeData [31:0] $end
$var reg 4 [ cont [3:0] $end
$var reg 32 \ readData_reg [31:0] $end
$upscope $end
$scope module immgem $end
$var wire 1 < clock $end
$var wire 32 ] imediatoGerado [31:0] $end
$var wire 1 > reset $end
$var wire 32 ^ instrucao [31:0] $end
$var reg 4 _ cont [3:0] $end
$var reg 32 ` imm [31:0] $end
$upscope $end
$scope module instruction_memory $end
$var wire 1 < clock $end
$var wire 32 a instruction31_0 [31:0] $end
$var wire 1 > reset $end
$var wire 32 b readAddress [31:0] $end
$var wire 7 c instruction6_0 [6:0] $end
$var wire 5 d instruction24_20 [4:0] $end
$var wire 5 e instruction19_15 [4:0] $end
$var wire 3 f instruction14_12 [2:0] $end
$var wire 5 g instruction11_7 [4:0] $end
$var reg 4 h cont [3:0] $end
$var reg 32 i instrucao_reg [31:0] $end
$upscope $end
$scope module mux1 $end
$var wire 1 < clock $end
$var wire 1 7 control $end
$var wire 1 > reset $end
$var wire 32 j saidaMux1 [31:0] $end
$var wire 32 k endereco2 [31:0] $end
$var wire 32 l endereco1 [31:0] $end
$var reg 4 m cont [3:0] $end
$var reg 32 n saidaMux1_reg [31:0] $end
$upscope $end
$scope module mux2 $end
$var wire 1 8 aluSrc $end
$var wire 1 < clock $end
$var wire 32 o imm [31:0] $end
$var wire 1 > reset $end
$var wire 32 p saidaMux2 [31:0] $end
$var wire 32 q readData2 [31:0] $end
$var reg 4 r cont [3:0] $end
$var reg 32 s saidaMux2_reg [31:0] $end
$upscope $end
$scope module mux3 $end
$var wire 32 t aluResult [31:0] $end
$var wire 1 < clock $end
$var wire 1 ( memtoReg $end
$var wire 32 u readData [31:0] $end
$var wire 1 > reset $end
$var wire 32 v saidaMux3 [31:0] $end
$var reg 4 w cont [3:0] $end
$var reg 32 x saidaMux3_reg [31:0] $end
$upscope $end
$scope module pc $end
$var wire 1 < clock $end
$var wire 32 y estado_pc [31:0] $end
$var wire 32 z prox_instrucao [31:0] $end
$var wire 1 > reset $end
$var reg 4 { cont [3:0] $end
$var reg 32 | endereco [31:0] $end
$upscope $end
$scope module regs $end
$var wire 1 < clock $end
$var wire 32 } readData1 [31:0] $end
$var wire 32 ~ readData2 [31:0] $end
$var wire 5 !" readReg1 [4:0] $end
$var wire 5 "" readReg2 [4:0] $end
$var wire 1 " regWrite $end
$var wire 1 > reset $end
$var wire 32 #" writeData [31:0] $end
$var wire 5 $" writeReg [4:0] $end
$var reg 4 %" cont [3:0] $end
$upscope $end
$scope module somadorMux $end
$var wire 1 < clock $end
$var wire 32 &" entrada_mux [31:0] $end
$var wire 32 '" estado_pc [31:0] $end
$var wire 32 (" imm_gen [31:0] $end
$var wire 1 > reset $end
$var reg 4 )" cont [3:0] $end
$var reg 32 *" soma [31:0] $end
$upscope $end
$scope module somadorPc $end
$var wire 1 < clock $end
$var wire 32 +" endereco_soma [31:0] $end
$var wire 32 ," estado_pc [31:0] $end
$var wire 1 > reset $end
$var reg 4 -" cont [3:0] $end
$var reg 32 ." soma [31:0] $end
$upscope $end
$upscope $end
$enddefinitions $end
$comment Show the parameter values. $end
$dumpall
$end
#0
$dumpvars
b1 ."
b0 -"
bx ,"
b1 +"
b0 *"
b0 )"
bx ("
bx '"
b0 &"
b0 %"
bx $"
bx #"
bx ""
bx !"
bx ~
bx }
bx |
bx {
bx z
bx y
bx x
bx w
bx v
bx u
bx t
bx s
bx r
bx q
bx p
bx o
bx n
bx m
b1 l
b0 k
bx j
bx i
bx h
bx g
bx f
bx e
bx d
bx c
bx b
bx a
bx `
bx _
bx ^
bx ]
bx \
bx [
bx Z
bx Y
bx X
xW
xV
xU
xT
bx S
xR
xQ
bx P
bx O
bx N
b0 M
0L
bx K
bx J
bx I
bx H
bx G
bx F
xE
bx D
bx C
bx B
bx A
bx @
bx ?
1>
b0 =
0<
bx ;
bx :
bx 9
x8
07
x6
b0 5
bx 4
bx 3
b1 2
bx 1
bx 0
bx /
bx .
bx -
bx ,
bx +
x*
x)
x(
bx '
bx &
bx %
bx $
bx #
x"
x!
$end
#1
b0 +
b0 O
b0 c
b0 $
b0 A
b0 }
b0 .
b0 e
b0 !"
b0 #
b0 Z
b0 q
b0 ~
b0 -
b0 d
b0 ""
b0 0
b0 g
b0 $"
b0 /
b0 G
b0 f
b0 3
b0 b
b0 y
b0 '"
b0 ,"
b0 |
b0 ,
b0 ^
b0 a
b0 i
b0 h
b0 _
b0 1
b0 ]
b0 o
b0 ("
b0 `
0"
0W
08
0Q
0)
0U
b0 :
b0 H
b0 N
b0 P
0(
0V
0*
0T
06
0R
b0 S
b0 J
b0 K
b0 ;
b0 B
b0 F
b0 I
b0 '
b0 @
b0 p
b0 s
b0 r
0!
0E
b0 9
b0 ?
b0 X
b0 t
b0 C
b0 D
b0 %
b0 Y
b0 u
b0 \
b0 [
b0 4
b0 j
b0 z
b0 n
b0 m
b0 &
b0 v
b0 #"
b0 x
b0 w
b0 {
1<
#2
0<
#3
1<
#4
0<
#5
1<
#6
0<
#7
1<
#8
0<
#9
1<
#10
0<
0>
#11
b11 +
b11 O
b11 c
b111 $
b111 A
b111 }
b1010 .
b1010 e
b1010 !"
b10 0
b10 g
b10 $"
b1 r
b1 J
b1 S
b1010000000100000011 ,
b1010000000100000011 ^
b1010000000100000011 a
b1010000000100000011 i
b1 M
b1 =
b1 w
b1 m
b1 [
b1 D
b1 _
b1 h
b1 {
b1 -"
b1 %"
b1 )"
1<
#12
0<
#13
b10 S
b10 J
b10 r
b10 M
b10 {
b10 h
b10 _
b10 D
b10 [
b10 m
b10 w
b10 =
b10 )"
b10 %"
b10 -"
1<
#14
0<
#15
b11 r
b11 J
b10 :
b10 H
b10 N
b10 P
1"
1W
18
1Q
0(
0V
0*
0T
b11 S
b11 M
b11 =
b11 w
b11 m
b11 [
b11 D
b11 _
b11 h
b11 {
b11 -"
b11 %"
b11 )"
1<
#16
0<
#17
b100 S
b100 J
b100 r
b100 M
b100 {
b100 h
b100 _
b100 D
b100 [
b100 m
b100 w
b100 =
b100 )"
b100 %"
b100 -"
1<
#18
0<
#19
b101 r
b101 J
b101 S
b101 M
b101 =
b101 w
b101 m
b101 [
b101 D
b101 _
b101 h
b101 {
b101 -"
b101 %"
b101 )"
1<
#20
0<
#21
b110 S
b10 ;
b10 B
b10 F
b10 I
b110 J
b110 r
1!
1E
b110 M
b110 {
b110 h
b110 _
b110 D
b110 [
b110 m
b110 w
b110 =
b110 )"
b110 %"
b110 -"
1<
#22
0<
#23
b111 r
b111 J
b111 S
b111 M
b111 =
b111 w
b111 m
b111 [
b111 D
b111 _
b111 h
b111 {
b111 -"
b111 %"
b111 )"
1<
#24
0<
#25
b1000 S
b1000 J
b1000 r
b1 4
b1 j
b1 z
b1 n
b1000 M
b1000 {
b1000 h
b1000 _
b1000 D
b1000 [
b1000 m
b1000 w
b1000 =
b1000 )"
b1000 %"
b1000 -"
1<
#26
0<
#27
b1001 r
b1001 J
b1001 S
b1001 M
b1001 =
b1001 w
b1001 m
b1001 [
b1001 D
b1001 _
b1001 h
b1001 {
b1001 -"
b1001 %"
b1001 )"
1<
#28
0<
#29
b1 3
b1 b
b1 y
b1 '"
b1 ,"
b1 |
b0 S
b0 J
b0 r
b0 M
b0 {
b0 h
b0 _
b0 D
b0 [
b0 m
b0 w
b0 =
b0 )"
b0 %"
b0 -"
1<
#30
0<
#31
b100011 +
b100011 O
b100011 c
b0 $
b0 A
b0 }
b0 .
b0 e
b0 !"
b10 -
b10 d
b10 ""
b100 0
b100 g
b100 $"
b1 r
b1 J
b1 S
b1000000000001000100011 ,
b1000000000001000100011 ^
b1000000000001000100011 a
b1000000000001000100011 i
b10 2
b10 l
b10 +"
b10 ."
b1 M
b1 =
b1 w
b1 m
b1 [
b1 D
b1 _
b1 h
b1 {
b1 -"
b1 %"
b1 )"
1<
#32
0<
#33
b100 1
b100 ]
b100 o
b100 ("
b100 `
b10 S
b10 J
b10 r
b10 M
b10 {
b10 h
b10 _
b10 D
b10 [
b10 m
b10 w
b10 =
b10 )"
b10 %"
b10 -"
1<
#34
0<
#35
b11 r
b11 J
0"
0W
1)
1U
b0 :
b0 H
b0 N
b0 P
b11 S
b11 M
b11 =
b11 w
b11 m
b11 [
b11 D
b11 _
b11 h
b11 {
b11 -"
b11 %"
b11 )"
1<
#36
0<
#37
b100 S
b100 J
b100 r
b100 M
b1 5
b1 k
b1 &"
b1 *"
b100 {
b100 h
b100 _
b100 D
b100 [
b100 m
b100 w
b100 =
b100 )"
b100 %"
b100 -"
1<
#38
0<
#39
b100 '
b100 @
b100 p
b100 s
b101 r
b101 J
b101 S
b101 M
b101 =
b101 w
b101 m
b101 [
b101 D
b101 _
b101 h
b101 {
b101 -"
b101 %"
b101 )"
1<
#40
0<
#41
b110 S
b110 J
b110 r
b100 9
b100 ?
b100 X
b100 t
b100 C
b110 M
b110 {
b110 h
b110 _
b110 D
b110 [
b110 m
b110 w
b110 =
b110 )"
b110 %"
b110 -"
1<
#42
0<
#43
b111 r
b111 J
b111 S
b111 M
b111 =
b111 w
b111 m
b111 [
b111 D
b111 _
b111 h
b111 {
b111 -"
b111 %"
b111 )"
1<
#44
0<
#45
b1000 S
b1000 J
b1000 r
b10 4
b10 j
b10 z
b10 n
b1000 M
b1000 {
b1000 h
b1000 _
b1000 D
b1000 [
b1000 m
b1000 w
b1000 =
b1000 )"
b1000 %"
b1000 -"
1<
#46
0<
#47
b100 &
b100 v
b100 #"
b100 x
b1001 r
b1001 J
b1001 S
b1001 M
b1001 =
b1001 w
b1001 m
b1001 [
b1001 D
b1001 _
b1001 h
b1001 {
b1001 -"
b1001 %"
b1001 )"
1<
#48
0<
#49
b10 3
b10 b
b10 y
b10 '"
b10 ,"
b10 |
b0 S
b0 J
b0 r
b0 M
b0 {
b0 h
b0 _
b0 D
b0 [
b0 m
b0 w
b0 =
b0 )"
b0 %"
b0 -"
1<
#50
0<
#51
b110011 +
b110011 O
b110011 c
b10 .
b10 e
b10 !"
b0 -
b0 d
b0 ""
b1 0
b1 g
b1 $"
b1 r
b1 J
b1 S
b10000000010110011 ,
b10000000010110011 ^
b10000000010110011 a
b10000000010110011 i
b11 2
b11 l
b11 +"
b11 ."
b1 M
b1 =
b1 w
b1 m
b1 [
b1 D
b1 _
b1 h
b1 {
b1 -"
b1 %"
b1 )"
1<
#52
0<
#53
b10 S
b10 J
b10 r
b10 M
b10 {
b10 h
b10 _
b10 D
b10 [
b10 m
b10 w
b10 =
b10 )"
b10 %"
b10 -"
1<
#54
0<
#55
b11 r
b11 J
1"
1W
08
0Q
0)
0U
b10 :
b10 H
b10 N
b10 P
b11 S
b11 M
b11 =
b11 w
b11 m
b11 [
b11 D
b11 _
b11 h
b11 {
b11 -"
b11 %"
b11 )"
1<
#56
0<
#57
b100 S
b100 J
b100 r
b100 M
b10 5
b10 k
b10 &"
b10 *"
b100 {
b100 h
b100 _
b100 D
b100 [
b100 m
b100 w
b100 =
b100 )"
b100 %"
b100 -"
1<
#58
0<
#59
b0 '
b0 @
b0 p
b0 s
b101 r
b101 J
b101 S
b101 M
b101 =
b101 w
b101 m
b101 [
b101 D
b101 _
b101 h
b101 {
b101 -"
b101 %"
b101 )"
1<
#60
0<
#61
b110 S
b110 J
b110 r
0!
0E
b0 9
b0 ?
b0 X
b0 t
b0 C
b110 M
b110 {
b110 h
b110 _
b110 D
b110 [
b110 m
b110 w
b110 =
b110 )"
b110 %"
b110 -"
1<
#62
0<
#63
b111 r
b111 J
b111 S
b111 M
b111 =
b111 w
b111 m
b111 [
b111 D
b111 _
b111 h
b111 {
b111 -"
b111 %"
b111 )"
1<
#64
0<
#65
b1000 S
b1000 J
b1000 r
b11 4
b11 j
b11 z
b11 n
b1000 M
b1000 {
b1000 h
b1000 _
b1000 D
b1000 [
b1000 m
b1000 w
b1000 =
b1000 )"
b1000 %"
b1000 -"
1<
#66
0<
#67
b0 &
b0 v
b0 #"
b0 x
b1001 r
b1001 J
b1001 S
b1001 M
b1001 =
b1001 w
b1001 m
b1001 [
b1001 D
b1001 _
b1001 h
b1001 {
b1001 -"
b1001 %"
b1001 )"
1<
#68
0<
#69
b11 3
b11 b
b11 y
b11 '"
b11 ,"
b11 |
b0 S
b0 J
b0 r
b0 M
b0 {
b0 h
b0 _
b0 D
b0 [
b0 m
b0 w
b0 =
b0 )"
b0 %"
b0 -"
1<
#70
0<
#71
b1 .
b1 e
b1 !"
b10 -
b10 d
b10 ""
b111 /
b111 G
b111 f
b1 r
b1 J
b1 S
b1000001111000010110011 ,
b1000001111000010110011 ^
b1000001111000010110011 a
b1000001111000010110011 i
b100 2
b100 l
b100 +"
b100 ."
b1 M
b1 =
b1 w
b1 m
b1 [
b1 D
b1 _
b1 h
b1 {
b1 -"
b1 %"
b1 )"
1<
#72
0<
#73
b10 S
b10 J
b10 r
b10 M
b10 {
b10 h
b10 _
b10 D
b10 [
b10 m
b10 w
b10 =
b10 )"
b10 %"
b10 -"
1<
#74
0<
#75
b11 r
b11 J
b11 S
b11 M
b11 =
b11 w
b11 m
b11 [
b11 D
b11 _
b11 h
b11 {
b11 -"
b11 %"
b11 )"
1<
#76
0<
#77
b100 S
b100 J
b100 r
b100 M
b11 5
b11 k
b11 &"
b11 *"
b100 {
b100 h
b100 _
b100 D
b100 [
b100 m
b100 w
b100 =
b100 )"
b100 %"
b100 -"
1<
#78
0<
#79
b101 r
b101 J
b101 S
b101 M
b101 =
b101 w
b101 m
b101 [
b101 D
b101 _
b101 h
b101 {
b101 -"
b101 %"
b101 )"
1<
#80
0<
#81
b110 S
b111 K
b110 J
b110 r
1!
1E
b110 M
b110 {
b110 h
b110 _
b110 D
b110 [
b110 m
b110 w
b110 =
b110 )"
b110 %"
b110 -"
1<
#82
0<
#83
b111 r
b111 J
b111 S
b111 M
b111 =
b111 w
b111 m
b111 [
b111 D
b111 _
b111 h
b111 {
b111 -"
b111 %"
b111 )"
1<
#84
0<
#85
b1000 S
b1000 J
b1000 r
b100 4
b100 j
b100 z
b100 n
b1000 M
b1000 {
b1000 h
b1000 _
b1000 D
b1000 [
b1000 m
b1000 w
b1000 =
b1000 )"
b1000 %"
b1000 -"
1<
#86
0<
#87
b1001 r
b1001 J
b1001 S
b1001 M
b1001 =
b1001 w
b1001 m
b1001 [
b1001 D
b1001 _
b1001 h
b1001 {
b1001 -"
b1001 %"
b1001 )"
1<
#88
0<
#89
b100 3
b100 b
b100 y
b100 '"
b100 ,"
b100 |
b0 S
b0 J
b0 r
b0 M
b0 {
b0 h
b0 _
b0 D
b0 [
b0 m
b0 w
b0 =
b0 )"
b0 %"
b0 -"
1<
#90
0<
#91
b10011 +
b10011 O
b10011 c
b0 -
b0 d
b0 ""
b110 /
b110 G
b110 f
b1 r
b1 J
b1 S
b1110000010010011 ,
b1110000010010011 ^
b1110000010010011 a
b1110000010010011 i
b101 2
b101 l
b101 +"
b101 ."
b1 M
b1 =
b1 w
b1 m
b1 [
b1 D
b1 _
b1 h
b1 {
b1 -"
b1 %"
b1 )"
1<
#92
0<
#93
b0 1
b0 ]
b0 o
b0 ("
b0 `
b10 S
b10 J
b10 r
b10 M
b10 {
b10 h
b10 _
b10 D
b10 [
b10 m
b10 w
b10 =
b10 )"
b10 %"
b10 -"
1<
#94
0<
#95
b11 r
b11 J
b11 S
b11 M
b11 =
b11 w
b11 m
b11 [
b11 D
b11 _
b11 h
b11 {
b11 -"
b11 %"
b11 )"
1<
#96
0<
#97
b100 S
b100 J
b100 r
b100 M
b100 5
b100 k
b100 &"
b100 *"
b100 {
b100 h
b100 _
b100 D
b100 [
b100 m
b100 w
b100 =
b100 )"
b100 %"
b100 -"
1<
#98
0<
#99
b101 r
b101 J
b101 S
b101 M
b101 =
b101 w
b101 m
b101 [
b101 D
b101 _
b101 h
b101 {
b101 -"
b101 %"
b101 )"
1<
#100
0<
#101
b110 S
b0 ;
b0 B
b0 F
b0 I
b110 K
b110 J
b110 r
b110 M
b110 {
b110 h
b110 _
b110 D
b110 [
b110 m
b110 w
b110 =
b110 )"
b110 %"
b110 -"
1<
#102
0<
#103
b111 r
b111 J
b111 S
b111 M
b111 =
b111 w
b111 m
b111 [
b111 D
b111 _
b111 h
b111 {
b111 -"
b111 %"
b111 )"
1<
#104
0<
#105
b1000 S
b1000 J
b1000 r
b101 4
b101 j
b101 z
b101 n
b1000 M
b1000 {
b1000 h
b1000 _
b1000 D
b1000 [
b1000 m
b1000 w
b1000 =
b1000 )"
b1000 %"
b1000 -"
1<
#106
0<
#107
b1001 r
b1001 J
b1001 S
b1001 M
b1001 =
b1001 w
b1001 m
b1001 [
b1001 D
b1001 _
b1001 h
b1001 {
b1001 -"
b1001 %"
b1001 )"
1<
#108
0<
#109
b101 3
b101 b
b101 y
b101 '"
b101 ,"
b101 |
b0 S
b0 J
b0 r
b0 M
b0 {
b0 h
b0 _
b0 D
b0 [
b0 m
b0 w
b0 =
b0 )"
b0 %"
b0 -"
1<
#110
0<
#111
b110011 +
b110011 O
b110011 c
b10 .
b10 e
b10 !"
b11111 -
b11111 d
b11111 ""
b10 0
b10 g
b10 $"
b1 /
b1 G
b1 f
b1 r
b1 J
b1 S
b1111100010001000100110011 ,
b1111100010001000100110011 ^
b1111100010001000100110011 a
b1111100010001000100110011 i
b110 2
b110 l
b110 +"
b110 ."
b1 M
b1 =
b1 w
b1 m
b1 [
b1 D
b1 _
b1 h
b1 {
b1 -"
b1 %"
b1 )"
1<
#112
0<
#113
b10 S
b10 J
b10 r
b10 M
b10 {
b10 h
b10 _
b10 D
b10 [
b10 m
b10 w
b10 =
b10 )"
b10 %"
b10 -"
1<
#114
0<
#115
b11 r
b11 J
b11 S
b11 M
b11 =
b11 w
b11 m
b11 [
b11 D
b11 _
b11 h
b11 {
b11 -"
b11 %"
b11 )"
1<
#116
0<
#117
b100 S
b100 J
b100 r
b100 M
b101 5
b101 k
b101 &"
b101 *"
b100 {
b100 h
b100 _
b100 D
b100 [
b100 m
b100 w
b100 =
b100 )"
b100 %"
b100 -"
1<
#118
0<
#119
b101 r
b101 J
b101 S
b101 M
b101 =
b101 w
b101 m
b101 [
b101 D
b101 _
b101 h
b101 {
b101 -"
b101 %"
b101 )"
1<
#120
0<
#121
b110 S
b1 ;
b1 B
b1 F
b1 I
b1 K
b110 J
b110 r
b110 M
b110 {
b110 h
b110 _
b110 D
b110 [
b110 m
b110 w
b110 =
b110 )"
b110 %"
b110 -"
1<
#122
0<
#123
b111 r
b111 J
b111 S
b111 M
b111 =
b111 w
b111 m
b111 [
b111 D
b111 _
b111 h
b111 {
b111 -"
b111 %"
b111 )"
1<
#124
0<
#125
b1000 S
b1000 J
b1000 r
b110 4
b110 j
b110 z
b110 n
b1000 M
b1000 {
b1000 h
b1000 _
b1000 D
b1000 [
b1000 m
b1000 w
b1000 =
b1000 )"
b1000 %"
b1000 -"
1<
#126
0<
#127
b1001 r
b1001 J
b1001 S
b1001 M
b1001 =
b1001 w
b1001 m
b1001 [
b1001 D
b1001 _
b1001 h
b1001 {
b1001 -"
b1001 %"
b1001 )"
1<
#128
0<
#129
b110 3
b110 b
b110 y
b110 '"
b110 ,"
b110 |
b0 S
b0 J
b0 r
b0 M
b0 {
b0 h
b0 _
b0 D
b0 [
b0 m
b0 w
b0 =
b0 )"
b0 %"
b0 -"
1<
#130
0<
#131
b1100011 +
b1100011 O
b1100011 c
b1 .
b1 e
b1 !"
b10 -
b10 d
b10 ""
b1010 0
b1010 g
b1010 $"
b1 r
b1 J
b1 S
b1000001001010101100011 ,
b1000001001010101100011 ^
b1000001001010101100011 a
b1000001001010101100011 i
b111 2
b111 l
b111 +"
b111 ."
b1 M
b1 =
b1 w
b1 m
b1 [
b1 D
b1 _
b1 h
b1 {
b1 -"
b1 %"
b1 )"
1<
#132
0<
#133
b1010 1
b1010 ]
b1010 o
b1010 ("
b1010 `
b10 S
b10 J
b10 r
b10 M
b10 {
b10 h
b10 _
b10 D
b10 [
b10 m
b10 w
b10 =
b10 )"
b10 %"
b10 -"
1<
#134
0<
#135
b11 r
b11 J
0"
0W
16
1R
b11 S
b11 M
b11 =
b11 w
b11 m
b11 [
b11 D
b11 _
b11 h
b11 {
b11 -"
b11 %"
b11 )"
1<
#136
0<
#137
b100 S
b100 J
b100 r
b100 M
b110 5
b110 k
b110 &"
b110 *"
b100 {
b100 h
b100 _
b100 D
b100 [
b100 m
b100 w
b100 =
b100 )"
b100 %"
b100 -"
1<
#138
0<
#139
b101 r
b101 J
b101 S
17
1L
b101 M
b101 =
b101 w
b101 m
b101 [
b101 D
b101 _
b101 h
b101 {
b101 -"
b101 %"
b101 )"
1<
#140
0<
#141
b110 S
b100 ;
b100 B
b100 F
b100 I
b110 J
b110 r
b110 M
b110 {
b110 h
b110 _
b110 D
b110 [
b110 m
b110 w
b110 =
b110 )"
b110 %"
b110 -"
1<
#142
0<
#143
b111 r
b111 J
b111 S
b111 M
b111 =
b111 w
b111 m
b111 [
b111 D
b111 _
b111 h
b111 {
b111 -"
b111 %"
b111 )"
1<
#144
0<
#145
b1000 S
b1000 J
b1000 r
b1000 M
b1000 {
b1000 h
b1000 _
b1000 D
b1000 [
b1000 m
b1000 w
b1000 =
b1000 )"
b1000 %"
b1000 -"
1<
#146
0<
#147
b1001 r
b1001 J
b1001 S
b1001 M
b1001 =
b1001 w
b1001 m
b1001 [
b1001 D
b1001 _
b1001 h
b1001 {
b1001 -"
b1001 %"
b1001 )"
1<
#148
0<
#149
b0 S
b0 J
b0 r
b0 M
b0 {
b0 h
b0 _
b0 D
b0 [
b0 m
b0 w
b0 =
b0 )"
b0 %"
b0 -"
1<
#150
0<
#151
b1 r
b1 J
b1 S
b1 M
b1 =
b1 w
b1 m
b1 [
b1 D
b1 _
b1 h
b1 {
b1 -"
b1 %"
b1 )"
1<
#152
0<
#153
b10 S
b10 J
b10 r
b10 M
b10 {
b10 h
b10 _
b10 D
b10 [
b10 m
b10 w
b10 =
b10 )"
b10 %"
b10 -"
1<
#154
0<
#155
b11 r
b11 J
b11 S
b11 M
b11 =
b11 w
b11 m
b11 [
b11 D
b11 _
b11 h
b11 {
b11 -"
b11 %"
b11 )"
1<
#156
0<
#157
b100 S
b100 J
b100 r
b100 M
b100 {
b100 h
b100 _
b100 D
b100 [
b100 m
b100 w
b100 =
b100 )"
b100 %"
b100 -"
1<
#158
0<
#159
b101 r
b101 J
b101 S
b101 M
b101 =
b101 w
b101 m
b101 [
b101 D
b101 _
b101 h
b101 {
b101 -"
b101 %"
b101 )"
1<
#160
0<
#161
b110 S
b110 J
b110 r
b110 M
b110 {
b110 h
b110 _
b110 D
b110 [
b110 m
b110 w
b110 =
b110 )"
b110 %"
b110 -"
1<
#162
0<
#163
b111 r
b111 J
b111 S
b111 M
b111 =
b111 w
b111 m
b111 [
b111 D
b111 _
b111 h
b111 {
b111 -"
b111 %"
b111 )"
1<
#164
0<
#165
b1000 S
b1000 J
b1000 r
b1000 M
b1000 {
b1000 h
b1000 _
b1000 D
b1000 [
b1000 m
b1000 w
b1000 =
b1000 )"
b1000 %"
b1000 -"
1<
#166
0<
#167
b1001 r
b1001 J
b1001 S
b1001 M
b1001 =
b1001 w
b1001 m
b1001 [
b1001 D
b1001 _
b1001 h
b1001 {
b1001 -"
b1001 %"
b1001 )"
1<
#168
0<
#169
b0 S
b0 J
b0 r
b0 M
b0 {
b0 h
b0 _
b0 D
b0 [
b0 m
b0 w
b0 =
b0 )"
b0 %"
b0 -"
1<
#170
0<
#171
b1 r
b1 J
b1 S
b1 M
b1 =
b1 w
b1 m
b1 [
b1 D
b1 _
b1 h
b1 {
b1 -"
b1 %"
b1 )"
1<
#172
0<
#173
b10 S
b10 J
b10 r
b10 M
b10 {
b10 h
b10 _
b10 D
b10 [
b10 m
b10 w
b10 =
b10 )"
b10 %"
b10 -"
1<
#174
0<
#175
b11 r
b11 J
b11 S
b11 M
b11 =
b11 w
b11 m
b11 [
b11 D
b11 _
b11 h
b11 {
b11 -"
b11 %"
b11 )"
1<
#176
0<
#177
b100 S
b100 J
b100 r
b100 M
b100 {
b100 h
b100 _
b100 D
b100 [
b100 m
b100 w
b100 =
b100 )"
b100 %"
b100 -"
1<
#178
0<
#179
b101 r
b101 J
b101 S
b101 M
b101 =
b101 w
b101 m
b101 [
b101 D
b101 _
b101 h
b101 {
b101 -"
b101 %"
b101 )"
1<
#180
0<
#181
b110 S
b110 J
b110 r
b110 M
b110 {
b110 h
b110 _
b110 D
b110 [
b110 m
b110 w
b110 =
b110 )"
b110 %"
b110 -"
1<
#182
0<
#183
b111 r
b111 J
b111 S
b111 M
b111 =
b111 w
b111 m
b111 [
b111 D
b111 _
b111 h
b111 {
b111 -"
b111 %"
b111 )"
1<
#184
0<
#185
b1000 S
b1000 J
b1000 r
b1000 M
b1000 {
b1000 h
b1000 _
b1000 D
b1000 [
b1000 m
b1000 w
b1000 =
b1000 )"
b1000 %"
b1000 -"
1<
#186
0<
#187
b1001 r
b1001 J
b1001 S
b1001 M
b1001 =
b1001 w
b1001 m
b1001 [
b1001 D
b1001 _
b1001 h
b1001 {
b1001 -"
b1001 %"
b1001 )"
1<
#188
0<
#189
b0 S
b0 J
b0 r
b0 M
b0 {
b0 h
b0 _
b0 D
b0 [
b0 m
b0 w
b0 =
b0 )"
b0 %"
b0 -"
1<
#190
0<
#191
b1 r
b1 J
b1 S
b1 M
b1 =
b1 w
b1 m
b1 [
b1 D
b1 _
b1 h
b1 {
b1 -"
b1 %"
b1 )"
1<
#192
0<
#193
b10 S
b10 J
b10 r
b10 M
b10 {
b10 h
b10 _
b10 D
b10 [
b10 m
b10 w
b10 =
b10 )"
b10 %"
b10 -"
1<
#194
0<
#195
b11 r
b11 J
b11 S
b11 M
b11 =
b11 w
b11 m
b11 [
b11 D
b11 _
b11 h
b11 {
b11 -"
b11 %"
b11 )"
1<
#196
0<
#197
b100 S
b100 J
b100 r
b100 M
b100 {
b100 h
b100 _
b100 D
b100 [
b100 m
b100 w
b100 =
b100 )"
b100 %"
b100 -"
1<
#198
0<
#199
b101 r
b101 J
b101 S
b101 M
b101 =
b101 w
b101 m
b101 [
b101 D
b101 _
b101 h
b101 {
b101 -"
b101 %"
b101 )"
1<
#200
0<
#201
b110 S
b110 J
b110 r
b110 M
b110 {
b110 h
b110 _
b110 D
b110 [
b110 m
b110 w
b110 =
b110 )"
b110 %"
b110 -"
1<
#202
0<
