Componentes/main.vcd
$date
	Wed Aug  7 16:57:21 2024
$end
$version
	Icarus Verilog
$end
$timescale
	1s
$end
$scope module main $end
$var wire 5 ! fio_instruction11_7 [4:0] $end
$var wire 3 " fio_instruction14_12 [2:0] $end
$var wire 1 # fio_zero $end
$var wire 1 $ fio_regWrite $end
$var wire 32 % fio_readData2 [31:0] $end
$var wire 32 & fio_readData1 [31:0] $end
$var wire 32 ' fio_readData [31:0] $end
$var wire 32 ( fio_mux3Saida [31:0] $end
$var wire 32 ) fio_mux2Saida [31:0] $end
$var wire 1 * fio_memtoReg $end
$var wire 1 + fio_memWrite $end
$var wire 1 , fio_memRead $end
$var wire 7 - fio_instruction6_0 [6:0] $end
$var wire 32 . fio_instruction31_0 [31:0] $end
$var wire 5 / fio_instruction24_20 [4:0] $end
$var wire 5 0 fio_instruction19_15 [4:0] $end
$var wire 32 1 fio_imm [31:0] $end
$var wire 32 2 fio_enderecoProxInst [31:0] $end
$var wire 32 3 fio_enderecoPcSaida [31:0] $end
$var wire 32 4 fio_enderecoPc [31:0] $end
$var wire 32 5 fio_enderecoDesvio [31:0] $end
$var wire 1 6 fio_branch $end
$var wire 1 7 fio_and $end
$var wire 1 8 fio_aluSrc $end
$var wire 32 9 fio_aluResult [31:0] $end
$var wire 2 : fio_aluOp [1:0] $end
$var wire 4 ; fio_aluCtrlSaida [3:0] $end
$var reg 1 < clock $end
$var reg 4 = contador [3:0] $end
$var reg 1 > reset $end
$scope module alu $end
$var wire 32 ? aluResult [31:0] $end
$var wire 1 < clock $end
$var wire 1 > reset $end
$var wire 1 # zero $end
$var wire 32 @ readData2 [31:0] $end
$var wire 32 A readData1 [31:0] $end
$var wire 4 B aluControl [3:0] $end
$var reg 32 C aluResult_reg [31:0] $end
$var reg 1 D zero_reg $end
$upscope $end
$scope module alu_control $end
$var wire 1 < clock $end
$var wire 3 E funct3 [2:0] $end
$var wire 1 > reset $end
$var wire 4 F saidaAluControl [3:0] $end
$var wire 2 G aluOp [1:0] $end
$var reg 4 H alu_control_reg [3:0] $end
$var reg 3 I funct3_reg [2:0] $end
$upscope $end
$scope module and_module $end
$var wire 1 # alu_0 $end
$var wire 1 < clock $end
$var wire 1 > reset $end
$var wire 1 7 saidaAnd $end
$var wire 1 6 branch $end
$var reg 1 J AND $end
$upscope $end
$scope module control $end
$var wire 2 K aluOp [1:0] $end
$var wire 1 8 aluSrc $end
$var wire 1 6 branch $end
$var wire 1 < clock $end
$var wire 1 , memRead $end
$var wire 1 + memWrite $end
$var wire 1 * memtoReg $end
$var wire 1 $ regWrite $end
$var wire 1 > reset $end
$var wire 7 L opcode [6:0] $end
$var reg 2 M aluOp_reg [1:0] $end
$var reg 1 N aluSrc_reg $end
$var reg 1 O branch_reg $end
$var reg 1 P memRead_reg $end
$var reg 1 Q memWrite_reg $end
$var reg 1 R memtoReg_reg $end
$var reg 1 S regWrite_reg $end
$upscope $end
$scope module data_memory $end
$var wire 32 T address [31:0] $end
$var wire 1 < clock $end
$var wire 1 , memRead $end
$var wire 1 + memWrite $end
$var wire 32 U readData [31:0] $end
$var wire 1 > reset $end
$var wire 32 V writeData [31:0] $end
$var reg 32 W readData_reg [31:0] $end
$upscope $end
$scope module immgem $end
$var wire 1 < clock $end
$var wire 32 X imediatoGerado [31:0] $end
$var wire 1 > reset $end
$var wire 32 Y instrucao [31:0] $end
$var reg 32 Z imm [31:0] $end
$upscope $end
$scope module instruction_memory $end
$var wire 1 < clock $end
$var wire 5 [ instruction11_7 [4:0] $end
$var wire 3 \ instruction14_12 [2:0] $end
$var wire 32 ] instruction31_0 [31:0] $end
$var wire 1 > reset $end
$var wire 32 ^ readAddress [31:0] $end
$var wire 7 _ instruction6_0 [6:0] $end
$var wire 5 ` instruction24_20 [4:0] $end
$var wire 5 a instruction19_15 [4:0] $end
$var wire 1 b iinstruction14_12 $end
$var wire 1 c iinstruction11_7 $end
$var reg 32 d instrucao_reg [31:0] $end
$upscope $end
$scope module mux1 $end
$var wire 1 < clock $end
$var wire 1 7 control $end
$var wire 1 > reset $end
$var wire 32 e saidaMux1 [31:0] $end
$var wire 32 f endereco2 [31:0] $end
$var wire 32 g endereco1 [31:0] $end
$var reg 32 h saidaMux1_reg [31:0] $end
$upscope $end
$scope module mux2 $end
$var wire 1 8 aluSrc $end
$var wire 1 < clock $end
$var wire 32 i imm [31:0] $end
$var wire 1 > reset $end
$var wire 32 j saidaMux2 [31:0] $end
$var wire 32 k readData2 [31:0] $end
$var reg 32 l saidaMux2_reg [31:0] $end
$upscope $end
$scope module mux3 $end
$var wire 32 m aluResult [31:0] $end
$var wire 1 < clock $end
$var wire 1 * memtoReg $end
$var wire 32 n readData [31:0] $end
$var wire 1 > reset $end
$var wire 32 o saidaMux3 [31:0] $end
$var reg 32 p aluResult_reg [31:0] $end
$var reg 32 q readData_reg [31:0] $end
$var reg 32 r saidaMux3_reg [31:0] $end
$upscope $end
$scope module pc $end
$var wire 1 < clock $end
$var wire 32 s estado_pc [31:0] $end
$var wire 32 t prox_instrucao [31:0] $end
$var wire 1 > reset $end
$var reg 32 u endereco [31:0] $end
$upscope $end
$scope module regs $end
$var wire 1 < clock $end
$var wire 5 v readReg1 [4:0] $end
$var wire 5 w readReg2 [4:0] $end
$var wire 1 $ regWrite $end
$var wire 1 > reset $end
$var wire 32 x writeData [31:0] $end
$var wire 5 y writeReg [4:0] $end
$var wire 32 z readData2 [31:0] $end
$var wire 32 { readData1 [31:0] $end
$var reg 5 | r1 [4:0] $end
$var reg 5 } r2 [4:0] $end
$var reg 5 ~ rd [4:0] $end
$var integer 32 !" i [31:0] $end
$upscope $end
$scope module somadorMux $end
$var wire 1 < clock $end
$var wire 32 "" entrada_mux [31:0] $end
$var wire 32 #" estado_pc [31:0] $end
$var wire 32 $" imm_gen [31:0] $end
$var wire 1 > reset $end
$var reg 32 %" soma [31:0] $end
$upscope $end
$scope module somadorPc $end
$var wire 1 < clock $end
$var wire 32 &" endereco_soma [31:0] $end
$var wire 32 '" estado_pc [31:0] $end
$var wire 1 > reset $end
$var reg 32 (" soma [31:0] $end
$upscope $end
$upscope $end
$enddefinitions $end
#0
$dumpvars
b1 ("
b0 '"
b1 &"
b0 %"
b0 $"
b0 #"
b0 ""
b100000 !"
bz ~
b0 }
b0 |
b0 {
b0 z
bz y
bx x
bx w
bx v
b0 u
bx t
b0 s
bx r
bx q
bx p
bx o
bx n
bx m
bx l
b0 k
bx j
b0 i
bx h
b1 g
b0 f
bx e
bx d
xc
xb
bx a
bx `
bx _
b0 ^
bx ]
bz \
bz [
b0 Z
bx Y
b0 X
bx W
b0 V
bx U
bx T
xS
xR
xQ
xP
xO
xN
bx M
bx L
bx K
0J
bx I
bx H
bx G
bx F
bz E
xD
bx C
bx B
b0 A
bx @
bx ?
1>
b0 =
0<
bx ;
bx :
bx 9
x8
07
x6
b0 5
bx 4
b0 3
b1 2
b0 1
bx 0
bx /
bx .
bx -
x,
x+
x*
bx )
bx (
bx '
b0 &
b0 %
x$
x#
bz "
bz !
$end
#1
0c
0b
b11 -
b11 L
b11 _
b1010 0
b1010 a
b1010 v
b0 /
b0 `
b0 w
b1010000000100000011 .
b1010000000100000011 Y
b1010000000100000011 ]
b1010000000100000011 d
b0 )
b0 @
b0 j
b0 l
b0 %
b0 V
b0 k
b0 z
b0 }
b0 &
b0 A
b0 {
b0 |
b1 4
b1 e
b1 t
b1 h
b100000 !"
1<
#2
0<
#3
1$
1S
18
1N
0+
0Q
b10 :
b10 G
b10 K
b10 M
0*
0R
0,
0P
06
0O
b0 &
b0 A
b0 {
b0 |
b100000 !"
1<
#4
0<
#5
b10 :
b10 G
b10 K
b10 M
0*
0R
0,
0P
b0 &
b0 A
b0 {
b0 |
b100000 !"
1<
#6
0<
#7
b10 :
b10 G
b10 K
b10 M
0*
0R
0,
0P
b0 &
b0 A
b0 {
b0 |
b100000 !"
1<
#8
0<
#9
b10 :
b10 G
b10 K
b10 M
0*
0R
0,
0P
b0 &
b0 A
b0 {
b0 |
b100000 !"
1<
#10
0<
0>
#11
b10 :
b10 G
b10 K
b10 M
0*
0R
0,
0P
b1 3
b1 ^
b1 s
b1 #"
b1 '"
b1 u
b1010 &
b1010 A
b1010 {
b1010 |
b1 =
1<
#12
0<
#13
b100011 -
b100011 L
b100011 _
b0 0
b0 a
b0 v
b10 /
b10 `
b10 w
b1000000000001000100011 .
b1000000000001000100011 Y
b1000000000001000100011 ]
b1000000000001000100011 d
b10 :
b10 G
b10 K
b10 M
0*
0R
0,
0P
b1 5
b1 f
b1 ""
b1 %"
b10 2
b10 g
b10 &"
b10 ("
b10 =
1<
#14
0<
#15
0$
0S
1+
1Q
b0 :
b0 G
b0 K
b0 M
b100 1
b100 X
b100 i
b100 $"
b100 Z
b10 %
b10 V
b10 k
b10 z
b10 }
b0 &
b0 A
b0 {
b0 |
b11 =
b10 4
b10 e
b10 t
b10 h
1<
#16
0<
#17
b10 ;
b10 B
b10 F
b10 H
b100 )
b100 @
b100 j
b100 l
b10 5
b10 f
b10 ""
b10 %"
b10 3
b10 ^
b10 s
b10 #"
b10 '"
b10 u
b100 =
1<
#18
0<
#19
1c
b110011 -
b110011 L
b110011 _
b10 0
b10 a
b10 v
b0 /
b0 `
b0 w
0#
0D
b100 9
b100 ?
b100 T
b100 m
b100 C
b10000000010110011 .
b10000000010110011 Y
b10000000010110011 ]
b10000000010110011 d
b11 2
b11 g
b11 &"
b11 ("
b11 5
b11 f
b11 ""
b11 %"
b101 =
1<
#20
0<
#21
1$
1S
08
0N
0+
0Q
b10 :
b10 G
b10 K
b10 M
b100 p
b0 %
b0 V
b0 k
b0 z
b0 }
b10 &
b10 A
b10 {
b10 |
b11 4
b11 e
b11 t
b11 h
b110 =
1<
#22
0<
#23
b100 (
b100 o
b100 x
b100 r
b110 9
b110 ?
b110 T
b110 m
b110 C
b0 )
b0 @
b0 j
b0 l
b11 3
b11 ^
b11 s
b11 #"
b11 '"
b11 u
b111 =
1<
#24
0<
#25
1b
b1 0
b1 a
b1 v
b10 /
b10 `
b10 w
b1000001111000010110011 .
b1000001111000010110011 Y
b1000001111000010110011 ]
b1000001111000010110011 d
b10 9
b10 ?
b10 T
b10 m
b10 C
b110 p
b100 5
b100 f
b100 ""
b100 %"
b100 2
b100 g
b100 &"
b100 ("
b1000 =
1<
#26
0<
#27
b110 (
b110 o
b110 x
b110 r
b10 p
b10 %
b10 V
b10 k
b10 z
b10 }
b1 &
b1 A
b1 {
b1 |
b1001 =
b100 4
b100 e
b100 t
b100 h
1<
#28
0<
#29
b10 )
b10 @
b10 j
b10 l
b1 9
b1 ?
b1 T
b1 m
b1 C
b10 (
b10 o
b10 x
b10 r
b100 3
b100 ^
b100 s
b100 #"
b100 '"
b100 u
b0 =
1<
#30
0<
#31
0b
b10011 -
b10011 L
b10011 _
b0 /
b0 `
b0 w
b1 p
b11 9
b11 ?
b11 T
b11 m
b11 C
b1110000010010011 .
b1110000010010011 Y
b1110000010010011 ]
b1110000010010011 d
b101 2
b101 g
b101 &"
b101 ("
b101 5
b101 f
b101 ""
b101 %"
b1 =
1<
#32
0<
#33
b1 (
b1 o
b1 x
b1 r
b11 p
b0 %
b0 V
b0 k
b0 z
b0 }
b0 1
b0 X
b0 i
b0 $"
b0 Z
b101 4
b101 e
b101 t
b101 h
b10 =
1<
#34
0<
#35
b11 (
b11 o
b11 x
b11 r
b0 )
b0 @
b0 j
b0 l
b101 3
b101 ^
b101 s
b101 #"
b101 '"
b101 u
b100 5
b100 f
b100 ""
b100 %"
b11 =
1<
#36
0<
#37
0c
1b
b110011 -
b110011 L
b110011 _
b10 0
b10 a
b10 v
b11111 /
b11111 `
b11111 w
b1111100010001000100110011 .
b1111100010001000100110011 Y
b1111100010001000100110011 ]
b1111100010001000100110011 d
b1 9
b1 ?
b1 T
b1 m
b1 C
b101 5
b101 f
b101 ""
b101 %"
b110 2
b110 g
b110 &"
b110 ("
b100 =
1<
#38
0<
#39
b1 p
b11111 %
b11111 V
b11111 k
b11111 z
b11111 }
b10 &
b10 A
b10 {
b10 |
b101 =
b110 4
b110 e
b110 t
b110 h
1<
#40
0<
#41
b11111 )
b11111 @
b11111 j
b11111 l
b10 9
b10 ?
b10 T
b10 m
b10 C
b1 (
b1 o
b1 x
b1 r
b110 3
b110 ^
b110 s
b110 #"
b110 '"
b110 u
b110 =
1<
#42
0<
#43
b1100011 -
b1100011 L
b1100011 _
b1 0
b1 a
b1 v
b10 /
b10 `
b10 w
b10 p
b100001 9
b100001 ?
b100001 T
b100001 m
b100001 C
b1000001001010101100011 .
b1000001001010101100011 Y
b1000001001010101100011 ]
b1000001001010101100011 d
b111 2
b111 g
b111 &"
b111 ("
b110 5
b110 f
b110 ""
b110 %"
b111 =
1<
#44
0<
#45
0$
0S
16
1O
b10 (
b10 o
b10 x
b10 r
b100001 p
b10 %
b10 V
b10 k
b10 z
b10 }
b1 &
b1 A
b1 {
b1 |
b1010 1
b1010 X
b1010 i
b1010 $"
b1010 Z
b111 4
b111 e
b111 t
b111 h
b1000 =
1<
#46
0<
#47
b100001 (
b100001 o
b100001 x
b100001 r
b100000 9
b100000 ?
b100000 T
b100000 m
b100000 C
b10 )
b10 @
b10 j
b10 l
b111 3
b111 ^
b111 s
b111 #"
b111 '"
b111 u
b1000 5
b1000 f
b1000 ""
b1000 %"
b1001 =
1<
#48
0<
#49
1c
0b
b110011 -
b110011 L
b110011 _
b1 /
b1 `
b1 w
b100001000000010110011 .
b100001000000010110011 Y
b100001000000010110011 ]
b100001000000010110011 d
b11 9
b11 ?
b11 T
b11 m
b11 C
b100000 p
b1001 5
b1001 f
b1001 ""
b1001 %"
b1000 2
b1000 g
b1000 &"
b1000 ("
b0 =
1<
#50
0<
#51
b100000 (
b100000 o
b100000 x
b100000 r
b11 p
1$
1S
06
0O
b1 %
b1 V
b1 k
b1 z
b1 }
b1 =
b1000 4
b1000 e
b1000 t
b1000 h
1<
#52
0<
#53
b1 )
b1 @
b1 j
b1 l
b11 (
b11 o
b11 x
b11 r
b1000 3
b1000 ^
b1000 s
b1000 #"
b1000 '"
b1000 u
b10 =
1<
#54
0<
#55
0c
b100011 -
b100011 L
b100011 _
b0 0
b0 a
b0 v
b10 9
b10 ?
b10 T
b10 m
b10 C
b100000000001000100011 .
b100000000001000100011 Y
b100000000001000100011 ]
b100000000001000100011 d
b1001 2
b1001 g
b1001 &"
b1001 ("
b1010 5
b1010 f
b1010 ""
b1010 %"
b11 =
1<
#56
0<
#57
0$
0S
18
1N
1+
1Q
b0 :
b0 G
b0 K
b0 M
b10 p
b0 &
b0 A
b0 {
b0 |
b100 1
b100 X
b100 i
b100 $"
b100 Z
b1001 4
b1001 e
b1001 t
b1001 h
b100 =
1<
#58
0<
#59
b10 (
b10 o
b10 x
b10 r
b1 9
b1 ?
b1 T
b1 m
b1 C
b100 )
b100 @
b100 j
b100 l
b1001 3
b1001 ^
b1001 s
b1001 #"
b1001 '"
b1001 u
b1001 5
b1001 f
b1001 ""
b1001 %"
b101 =
1<
#60
0<
#61
1c
b10011 -
b10011 L
b10011 _
b1 0
b1 a
b1 v
b0 /
b0 `
b0 w
b1110000010010011 .
b1110000010010011 Y
b1110000010010011 ]
b1110000010010011 d
b100 9
b100 ?
b100 T
b100 m
b100 C
b1 p
b1010 5
b1010 f
b1010 ""
b1010 %"
b1010 2
b1010 g
b1010 &"
b1010 ("
b110 =
1<
#62
0<
#63
b1 (
b1 o
b1 x
b1 r
b100 p
b0 1
b0 X
b0 i
b0 $"
b0 Z
b0 %
b0 V
b0 k
b0 z
b0 }
b1 &
b1 A
b1 {
b1 |
b111 =
b1010 4
b1010 e
b1010 t
b1010 h
1<
#64
0<
#65
b0 )
b0 @
b0 j
b0 l
b101 9
b101 ?
b101 T
b101 m
b101 C
b100 (
b100 o
b100 x
b100 r
b1001 5
b1001 f
b1001 ""
b1001 %"
b1010 3
b1010 ^
b1010 s
b1010 #"
b1010 '"
b1010 u
b1000 =
1<
#66
0<
#67
0c
b100011 -
b100011 L
b100011 _
b0 0
b0 a
b0 v
b1 /
b1 `
b1 w
b101 p
b1 9
b1 ?
b1 T
b1 m
b1 C
b100000000000000100011 .
b100000000000000100011 Y
b100000000000000100011 ]
b100000000000000100011 d
b1011 2
b1011 g
b1011 &"
b1011 ("
b1010 5
b1010 f
b1010 ""
b1010 %"
b1001 =
1<
#68
0<
#69
b101 (
b101 o
b101 x
b101 r
b1 p
b1 %
b1 V
b1 k
b1 z
b1 }
b0 &
b0 A
b0 {
b0 |
b1011 4
b1011 e
b1011 t
b1011 h
b0 =
1<
#70
0<
#71
b1 (
b1 o
b1 x
b1 r
b0 9
b0 ?
b0 T
b0 m
b0 C
b1011 3
b1011 ^
b1011 s
b1011 #"
b1011 '"
b1011 u
b1 =
1<
#72
0<
#73
xc
xb
bx -
bx L
bx _
bx 0
bx a
bx v
bx /
bx `
bx w
bx .
bx Y
bx ]
bx d
b0 p
b1011 5
b1011 f
b1011 ""
b1011 %"
b1100 2
b1100 g
b1100 &"
b1100 ("
b10 =
1<
#74
0<
#75
b0 (
b0 o
b0 x
b0 r
b0xxxxx %
b0xxxxx V
b0xxxxx k
b0xxxxx z
bx }
b0xxxxx &
b0xxxxx A
b0xxxxx {
bx |
b11 =
b1100 4
b1100 e
b1100 t
b1100 h
1<
#76
0<
#77
bx 9
bx ?
bx T
bx m
bx C
b1100 3
b1100 ^
b1100 s
b1100 #"
b1100 '"
b1100 u
b100 =
1<
#78
0<
#79
bx p
b1101 2
b1101 g
b1101 &"
b1101 ("
b1100 5
b1100 f
b1100 ""
b1100 %"
b101 =
1<
#80
0<
#81
bx (
bx o
bx x
bx r
b1101 4
b1101 e
b1101 t
b1101 h
b110 =
1<
#82
0<
#83
b1101 3
b1101 ^
b1101 s
b1101 #"
b1101 '"
b1101 u
b111 =
1<
#84
0<
#85
b1101 5
b1101 f
b1101 ""
b1101 %"
b1110 2
b1110 g
b1110 &"
b1110 ("
b1000 =
1<
#86
0<
#87
b1001 =
b1110 4
b1110 e
b1110 t
b1110 h
1<
#88
0<
#89
b1110 3
b1110 ^
b1110 s
b1110 #"
b1110 '"
b1110 u
b0 =
1<
#90
0<
#91
b1111 2
b1111 g
b1111 &"
b1111 ("
b1110 5
b1110 f
b1110 ""
b1110 %"
b1 =
1<
#92
0<
#93
b1111 4
b1111 e
b1111 t
b1111 h
b10 =
1<
#94
0<
#95
b1111 3
b1111 ^
b1111 s
b1111 #"
b1111 '"
b1111 u
b11 =
1<
#96
0<
#97
b1111 5
b1111 f
b1111 ""
b1111 %"
b10000 2
b10000 g
b10000 &"
b10000 ("
b100 =
1<
#98
0<
#99
b101 =
b10000 4
b10000 e
b10000 t
b10000 h
1<
#100
0<
#101
b10000 3
b10000 ^
b10000 s
b10000 #"
b10000 '"
b10000 u
b110 =
1<
#102
0<
#103
b10001 2
b10001 g
b10001 &"
b10001 ("
b10000 5
b10000 f
b10000 ""
b10000 %"
b111 =
1<
#104
0<
#105
b10001 4
b10001 e
b10001 t
b10001 h
b1000 =
1<
#106
0<
#107
b10001 3
b10001 ^
b10001 s
b10001 #"
b10001 '"
b10001 u
b1001 =
1<
#108
0<
#109
b10001 5
b10001 f
b10001 ""
b10001 %"
b10010 2
b10010 g
b10010 &"
b10010 ("
b0 =
1<
#110
0<
#111
b1 =
b10010 4
b10010 e
b10010 t
b10010 h
1<
#112
0<
#113
b10010 3
b10010 ^
b10010 s
b10010 #"
b10010 '"
b10010 u
b10 =
1<
#114
0<
#115
b10011 2
b10011 g
b10011 &"
b10011 ("
b10010 5
b10010 f
b10010 ""
b10010 %"
b11 =
1<
#116
0<
#117
b10011 4
b10011 e
b10011 t
b10011 h
b100 =
1<
#118
0<
#119
b10011 3
b10011 ^
b10011 s
b10011 #"
b10011 '"
b10011 u
b101 =
1<
#120
0<
#121
b10011 5
b10011 f
b10011 ""
b10011 %"
b10100 2
b10100 g
b10100 &"
b10100 ("
b110 =
1<
#122
0<
#123
b111 =
b10100 4
b10100 e
b10100 t
b10100 h
1<
#124
0<
#125
b10100 3
b10100 ^
b10100 s
b10100 #"
b10100 '"
b10100 u
b1000 =
1<
#126
0<
#127
b10101 2
b10101 g
b10101 &"
b10101 ("
b10100 5
b10100 f
b10100 ""
b10100 %"
b1001 =
1<
#128
0<
#129
b10101 4
b10101 e
b10101 t
b10101 h
b0 =
1<
#130
0<
#131
b10101 3
b10101 ^
b10101 s
b10101 #"
b10101 '"
b10101 u
b1 =
1<
#132
0<
#133
b10101 5
b10101 f
b10101 ""
b10101 %"
b10110 2
b10110 g
b10110 &"
b10110 ("
b10 =
1<
#134
0<
#135
b11 =
b10110 4
b10110 e
b10110 t
b10110 h
1<
#136
0<
#137
b10110 3
b10110 ^
b10110 s
b10110 #"
b10110 '"
b10110 u
b100 =
1<
#138
0<
#139
b10111 2
b10111 g
b10111 &"
b10111 ("
b10110 5
b10110 f
b10110 ""
b10110 %"
b101 =
1<
#140
0<
#141
b10111 4
b10111 e
b10111 t
b10111 h
b110 =
1<
#142
0<
#143
b10111 3
b10111 ^
b10111 s
b10111 #"
b10111 '"
b10111 u
b111 =
1<
#144
0<
#145
b10111 5
b10111 f
b10111 ""
b10111 %"
b11000 2
b11000 g
b11000 &"
b11000 ("
b1000 =
1<
#146
0<
#147
b1001 =
b11000 4
b11000 e
b11000 t
b11000 h
1<
#148
0<
#149
b11000 3
b11000 ^
b11000 s
b11000 #"
b11000 '"
b11000 u
b0 =
1<
#150
0<
#151
b11001 2
b11001 g
b11001 &"
b11001 ("
b11000 5
b11000 f
b11000 ""
b11000 %"
b1 =
1<
#152
0<
#153
b11001 4
b11001 e
b11001 t
b11001 h
b10 =
1<
#154
0<
#155
b11001 3
b11001 ^
b11001 s
b11001 #"
b11001 '"
b11001 u
b11 =
1<
#156
0<
#157
b11001 5
b11001 f
b11001 ""
b11001 %"
b11010 2
b11010 g
b11010 &"
b11010 ("
b100 =
1<
#158
0<
#159
b101 =
b11010 4
b11010 e
b11010 t
b11010 h
1<
#160
0<
#161
b11010 3
b11010 ^
b11010 s
b11010 #"
b11010 '"
b11010 u
b110 =
1<
#162
0<
#163
b11011 2
b11011 g
b11011 &"
b11011 ("
b11010 5
b11010 f
b11010 ""
b11010 %"
b111 =
1<
#164
0<
#165
b11011 4
b11011 e
b11011 t
b11011 h
b1000 =
1<
#166
0<
#167
b11011 3
b11011 ^
b11011 s
b11011 #"
b11011 '"
b11011 u
b1001 =
1<
#168
0<
#169
b11011 5
b11011 f
b11011 ""
b11011 %"
b11100 2
b11100 g
b11100 &"
b11100 ("
b0 =
1<
#170
0<
#171
b1 =
b11100 4
b11100 e
b11100 t
b11100 h
1<
#172
0<
#173
b11100 3
b11100 ^
b11100 s
b11100 #"
b11100 '"
b11100 u
b10 =
1<
#174
0<
#175
b11101 2
b11101 g
b11101 &"
b11101 ("
b11100 5
b11100 f
b11100 ""
b11100 %"
b11 =
1<
#176
0<
#177
b11101 4
b11101 e
b11101 t
b11101 h
b100 =
1<
#178
0<
#179
b11101 3
b11101 ^
b11101 s
b11101 #"
b11101 '"
b11101 u
b101 =
1<
#180
0<
#181
b11101 5
b11101 f
b11101 ""
b11101 %"
b11110 2
b11110 g
b11110 &"
b11110 ("
b110 =
1<
#182
0<
#183
b111 =
b11110 4
b11110 e
b11110 t
b11110 h
1<
#184
0<
#185
b11110 3
b11110 ^
b11110 s
b11110 #"
b11110 '"
b11110 u
b1000 =
1<
#186
0<
#187
b11111 2
b11111 g
b11111 &"
b11111 ("
b11110 5
b11110 f
b11110 ""
b11110 %"
b1001 =
1<
#188
0<
#189
b11111 4
b11111 e
b11111 t
b11111 h
b0 =
1<
#190
0<
#191
b11111 3
b11111 ^
b11111 s
b11111 #"
b11111 '"
b11111 u
b1 =
1<
#192
0<
#193
b11111 5
b11111 f
b11111 ""
b11111 %"
b100000 2
b100000 g
b100000 &"
b100000 ("
b10 =
1<
#194
0<
#195
b11 =
b100000 4
b100000 e
b100000 t
b100000 h
1<
#196
0<
#197
b100000 3
b100000 ^
b100000 s
b100000 #"
b100000 '"
b100000 u
b100 =
1<
#198
0<
#199
b100001 2
b100001 g
b100001 &"
b100001 ("
b100000 5
b100000 f
b100000 ""
b100000 %"
b101 =
1<
#200
0<
#201
b100001 4
b100001 e
b100001 t
b100001 h
b110 =
1<
#202
0<
#203
b100001 3
b100001 ^
b100001 s
b100001 #"
b100001 '"
b100001 u
b111 =
1<
#204
0<
#205
b100001 5
b100001 f
b100001 ""
b100001 %"
b100010 2
b100010 g
b100010 &"
b100010 ("
b1000 =
1<
#206
0<
#207
b1001 =
b100010 4
b100010 e
b100010 t
b100010 h
1<
#208
0<
#209
b100010 3
b100010 ^
b100010 s
b100010 #"
b100010 '"
b100010 u
b0 =
1<
#210
0<
#211
b100011 2
b100011 g
b100011 &"
b100011 ("
b100010 5
b100010 f
b100010 ""
b100010 %"
b1 =
1<
#212
0<
#213
b100011 4
b100011 e
b100011 t
b100011 h
b10 =
1<
#214
0<
#215
b100011 3
b100011 ^
b100011 s
b100011 #"
b100011 '"
b100011 u
b11 =
1<
#216
0<
#217
b100011 5
b100011 f
b100011 ""
b100011 %"
b100100 2
b100100 g
b100100 &"
b100100 ("
b100 =
1<
#218
0<
#219
b101 =
b100100 4
b100100 e
b100100 t
b100100 h
1<
#220
0<
#221
b100100 3
b100100 ^
b100100 s
b100100 #"
b100100 '"
b100100 u
b110 =
1<
#222
0<
#223
b100101 2
b100101 g
b100101 &"
b100101 ("
b100100 5
b100100 f
b100100 ""
b100100 %"
b111 =
1<
#224
0<
#225
b100101 4
b100101 e
b100101 t
b100101 h
b1000 =
1<
#226
0<
#227
b100101 3
b100101 ^
b100101 s
b100101 #"
b100101 '"
b100101 u
b1001 =
1<
#228
0<
#229
b100101 5
b100101 f
b100101 ""
b100101 %"
b100110 2
b100110 g
b100110 &"
b100110 ("
b0 =
1<
#230
0<
#231
b1 =
b100110 4
b100110 e
b100110 t
b100110 h
1<
#232
0<
#233
b100110 3
b100110 ^
b100110 s
b100110 #"
b100110 '"
b100110 u
b10 =
1<
#234
0<
#235
b100111 2
b100111 g
b100111 &"
b100111 ("
b100110 5
b100110 f
b100110 ""
b100110 %"
b11 =
1<
#236
0<
#237
b100111 4
b100111 e
b100111 t
b100111 h
b100 =
1<
#238
0<
#239
b100111 3
b100111 ^
b100111 s
b100111 #"
b100111 '"
b100111 u
b101 =
1<
#240
0<
#241
b100111 5
b100111 f
b100111 ""
b100111 %"
b101000 2
b101000 g
b101000 &"
b101000 ("
b110 =
1<
#242
0<
#243
b111 =
b101000 4
b101000 e
b101000 t
b101000 h
1<
#244
0<
#245
b101000 3
b101000 ^
b101000 s
b101000 #"
b101000 '"
b101000 u
b1000 =
1<
#246
0<
#247
b101001 2
b101001 g
b101001 &"
b101001 ("
b101000 5
b101000 f
b101000 ""
b101000 %"
b1001 =
1<
#248
0<
#249
b101001 4
b101001 e
b101001 t
b101001 h
b0 =
1<
#250
0<
#251
b101001 3
b101001 ^
b101001 s
b101001 #"
b101001 '"
b101001 u
b1 =
1<
#252
0<
#253
b101001 5
b101001 f
b101001 ""
b101001 %"
b101010 2
b101010 g
b101010 &"
b101010 ("
b10 =
1<
#254
0<
#255
b11 =
b101010 4
b101010 e
b101010 t
b101010 h
1<
#256
0<
#257
b101010 3
b101010 ^
b101010 s
b101010 #"
b101010 '"
b101010 u
b100 =
1<
#258
0<
#259
b101011 2
b101011 g
b101011 &"
b101011 ("
b101010 5
b101010 f
b101010 ""
b101010 %"
b101 =
1<
#260
0<
#261
b101011 4
b101011 e
b101011 t
b101011 h
b110 =
1<
#262
0<
#263
b101011 3
b101011 ^
b101011 s
b101011 #"
b101011 '"
b101011 u
b111 =
1<
#264
0<
#265
b101011 5
b101011 f
b101011 ""
b101011 %"
b101100 2
b101100 g
b101100 &"
b101100 ("
b1000 =
1<
#266
0<
#267
b1001 =
b101100 4
b101100 e
b101100 t
b101100 h
1<
#268
0<
#269
b101100 3
b101100 ^
b101100 s
b101100 #"
b101100 '"
b101100 u
b0 =
1<
#270
0<
#271
b101101 2
b101101 g
b101101 &"
b101101 ("
b101100 5
b101100 f
b101100 ""
b101100 %"
b1 =
1<
#272
0<
#273
b101101 4
b101101 e
b101101 t
b101101 h
b10 =
1<
#274
0<
#275
b101101 3
b101101 ^
b101101 s
b101101 #"
b101101 '"
b101101 u
b11 =
1<
#276
0<
#277
b101101 5
b101101 f
b101101 ""
b101101 %"
b101110 2
b101110 g
b101110 &"
b101110 ("
b100 =
1<
#278
0<
#279
b101 =
b101110 4
b101110 e
b101110 t
b101110 h
1<
#280
0<
#281
b101110 3
b101110 ^
b101110 s
b101110 #"
b101110 '"
b101110 u
b110 =
1<
#282
0<
#283
b101111 2
b101111 g
b101111 &"
b101111 ("
b101110 5
b101110 f
b101110 ""
b101110 %"
b111 =
1<
#284
0<
#285
b101111 4
b101111 e
b101111 t
b101111 h
b1000 =
1<
#286
0<
#287
b101111 3
b101111 ^
b101111 s
b101111 #"
b101111 '"
b101111 u
b1001 =
1<
#288
0<
#289
b101111 5
b101111 f
b101111 ""
b101111 %"
b110000 2
b110000 g
b110000 &"
b110000 ("
b0 =
1<
#290
0<
#291
b1 =
b110000 4
b110000 e
b110000 t
b110000 h
1<
#292
0<
#293
b110000 3
b110000 ^
b110000 s
b110000 #"
b110000 '"
b110000 u
b10 =
1<
#294
0<
#295
b110001 2
b110001 g
b110001 &"
b110001 ("
b110000 5
b110000 f
b110000 ""
b110000 %"
b11 =
1<
#296
0<
#297
b110001 4
b110001 e
b110001 t
b110001 h
b100 =
1<
#298
0<
